AnalysisTEASalaries – tea-teachers
…
Read in cleaned data

teaching_staff_salaries <- read_rds("data-processed/teaching_staff_salaries.rds")
cpi <- read_rds("data-processed/cpi_201401_202502")
household_budget_simple <- read_rds("data-processed/alice_household_budget.rds")
enrollment <- read_rds("data-processed/enrollment-by-district.rds")

Now I want to only look at totals for teaching staff at each district. I also want to exclude charters and exclude the weird small pay amounts.

teaching_staff_totals_no_enroll <- teaching_staff_salaries |> 
  filter(staff == "TOTAL TEACHING STAFF" & average_base_pay > 10000 & charter_status == "TRADITIONAL ISD/CSD")

teaching_staff_totals_no_enroll

# A tibble: 9,322 × 18
   region county   district_number district_name.x charter_status staff_category
   <chr>  <chr>    <chr>           <chr>           <chr>          <chr>         
 1 07     ANDERSO… 001902          CAYUGA ISD      TRADITIONAL I… TEACHING STAFF
 2 07     ANDERSO… 001903          ELKHART ISD     TRADITIONAL I… TEACHING STAFF
 3 07     ANDERSO… 001904          FRANKSTON ISD   TRADITIONAL I… TEACHING STAFF
 4 07     ANDERSO… 001906          NECHES ISD      TRADITIONAL I… TEACHING STAFF
 5 07     ANDERSO… 001907          PALESTINE ISD   TRADITIONAL I… TEACHING STAFF
 6 07     ANDERSO… 001908          WESTWOOD ISD    TRADITIONAL I… TEACHING STAFF
 7 07     ANDERSO… 001909          SLOCUM ISD      TRADITIONAL I… TEACHING STAFF
 8 18     ANDREWS… 002901          ANDREWS ISD     TRADITIONAL I… TEACHING STAFF
 9 07     ANGELIN… 003902          HUDSON ISD      TRADITIONAL I… TEACHING STAFF
10 07     ANGELIN… 003903          LUFKIN ISD      TRADITIONAL I… TEACHING STAFF
# ℹ 9,312 more rows
# ℹ 12 more variables: staff <chr>, fte_count <dbl>, total_base_pay <dbl>,
#   average_base_pay <dbl>, school_year <fct>, district_name.y <chr>,
#   tea_district_type <chr>, tea_description <chr>, nces_district_type <chr>,
#   nces_description <chr>, charter_school_y_n <chr>, end_year <chr>
…
Now let’s look at the average pay per district per year so we can look at it over time.

teaching_staff_average_school_years <- teaching_staff_totals |>
  group_by(district_name.x, school_year) |> summarize(avg_pay = mean(average_base_pay))

`summarise()` has grouped output by 'district_name.x'. You can override using
the `.groups` argument.

teaching_staff_average_school_years

# A tibble: 9,222 × 3
# Groups:   district_name.x [1,023]
   district_name.x school_year avg_pay
   <chr>           <chr>         <dbl>
 1 ABBOTT ISD      2014-2015     42066
 2 ABBOTT ISD      2015-2016     43863
 3 ABBOTT ISD      2016-2017     43346
 4 ABBOTT ISD      2017-2018     45447
 5 ABBOTT ISD      2018-2019     44707
 6 ABBOTT ISD      2019-2020     52540
 7 ABBOTT ISD      2020-2021     51449
 8 ABBOTT ISD      2021-2022     54155
 9 ABBOTT ISD      2022-2023     55584
10 ABBOTT ISD      2023-2024     54927
# ℹ 9,212 more rows

Okay there’s too many schools for us to graph these all at once. Maybe if we just do one region (central texas, 13).

austin_schools <- teaching_staff_totals |> filter(region == "13") |> 
  group_by(district_name.x, school_year) |> summarize(avg_pay = mean(average_base_pay)) 

`summarise()` has grouped output by 'district_name.x'. You can override using
the `.groups` argument.

austin_schools

# A tibble: 483 × 3
# Groups:   district_name.x [57]
   district_name.x school_year avg_pay
   <chr>           <chr>         <dbl>
 1 AUSTIN ISD      2014-2015     47476
 2 AUSTIN ISD      2015-2016     48631
 3 AUSTIN ISD      2016-2017     50144
 4 AUSTIN ISD      2017-2018     52397
 5 AUSTIN ISD      2018-2019     51464
 6 AUSTIN ISD      2019-2020     54707
 7 AUSTIN ISD      2020-2021     55849
 8 AUSTIN ISD      2021-2022     56424
 9 AUSTIN ISD      2022-2023     58511
10 AUSTIN ISD      2023-2024     60821
# ℹ 473 more rows
…
teaching_staff_totals <- teaching_staff_totals |> mutate(
  tea_description = tea_description |> na_if ("N/A")
)

Now I want to see the average pay for each TEA district type for each school year.

district_types_tea_chart <- teaching_staff_totals |> group_by(tea_description, school_year) |> 
  summarize(avg_pay = mean(average_base_pay))

`summarise()` has grouped output by 'tea_description'. You can override using
the `.groups` argument.

district_types_tea_chart

# A tibble: 87 × 3
# Groups:   tea_description [9]
   tea_description  school_year avg_pay
   <chr>            <chr>         <dbl>
 1 Independent Town 2014-2015    45775.
 2 Independent Town 2015-2016    46330.
 3 Independent Town 2016-2017    46938.
 4 Independent Town 2017-2018    47376.
 5 Independent Town 2018-2019    47945.
 6 Independent Town 2019-2020    51791.
 7 Independent Town 2020-2021    52313.
 8 Independent Town 2021-2022    52986.
 9 Independent Town 2022-2023    54895.
10 Independent Town 2023-2024    57213.
# ℹ 77 more rows
…
Adding Cost of Living

Now that we have ALICE’s household survival budget, I can use it to compare that to each districts salaries.

First, I am going to clean up the ALICE data so I can join it with my salary data.

Now, I am going to left join it on both the county and year.

salaries_col <- left_join(teaching_staff_totals, household_budget_simple, by = c("county", "end_year"))

salaries_col

# A tibble: 9,322 × 20
   region county   district_number district_name.x charter_status staff_category
   <chr>  <chr>    <chr>           <chr>           <chr>          <chr>         
 1 07     ANDERSO… 001902          CAYUGA ISD      TRADITIONAL I… TEACHING STAFF
 2 07     ANDERSO… 001903          ELKHART ISD     TRADITIONAL I… TEACHING STAFF
 3 07     ANDERSO… 001904          FRANKSTON ISD   TRADITIONAL I… TEACHING STAFF
 4 07     ANDERSO… 001906          NECHES ISD      TRADITIONAL I… TEACHING STAFF
 5 07     ANDERSO… 001907          PALESTINE ISD   TRADITIONAL I… TEACHING STAFF
 6 07     ANDERSO… 001908          WESTWOOD ISD    TRADITIONAL I… TEACHING STAFF
 7 07     ANDERSO… 001909          SLOCUM ISD      TRADITIONAL I… TEACHING STAFF
 8 18     ANDREWS… 002901          ANDREWS ISD     TRADITIONAL I… TEACHING STAFF
 9 07     ANGELIN… 003902          HUDSON ISD      TRADITIONAL I… TEACHING STAFF
10 07     ANGELIN… 003903          LUFKIN ISD      TRADITIONAL I… TEACHING STAFF
# ℹ 9,312 more rows
# ℹ 14 more variables: staff <chr>, fte_count <dbl>, total_base_pay <dbl>,
#   average_base_pay <dbl>, school_year <chr>, district_name.y <chr>,
#   tea_district_type <chr>, tea_description <chr>, nces_district_type <chr>,
#   nces_description <chr>, charter_school_y_n <chr>, end_year <chr>,
#   total_enrollment <dbl>, alice_threshold_hh_under_65 <dbl>

There are a few years that are inconsistent between the datasets. But since I have data around each year, I can use that. For example, I want to use 2016 for 2015 when needed. But, I also want to use 2022 for 2024 when needed. So I am going to fill up first, then down in each county.

First, I am going to it out with a single district.

testing_filling <- salaries_col |> filter(county == "ANDERSON COUNTY") |> select(
  county, district_name.x, school_year, end_year, alice_threshold_hh_under_65) |> 
  fill(alice_threshold_hh_under_65, .direction = "updown")

testing_filling

# A tibble: 63 × 5
   county          district_name.x school_year end_year alice_threshold_hh_und…¹
   <chr>           <chr>           <chr>       <chr>                       <dbl>
 1 ANDERSON COUNTY CAYUGA ISD      2014-2015   2015                        50000
 2 ANDERSON COUNTY ELKHART ISD     2014-2015   2015                        50000
 3 ANDERSON COUNTY FRANKSTON ISD   2014-2015   2015                        50000
 4 ANDERSON COUNTY NECHES ISD      2014-2015   2015                        50000
 5 ANDERSON COUNTY PALESTINE ISD   2014-2015   2015                        50000
 6 ANDERSON COUNTY WESTWOOD ISD    2014-2015   2015                        50000
 7 ANDERSON COUNTY SLOCUM ISD      2014-2015   2015                        50000
 8 ANDERSON COUNTY CAYUGA ISD      2015-2016   2016                        50000
 9 ANDERSON COUNTY ELKHART ISD     2015-2016   2016                        50000
10 ANDERSON COUNTY FRANKSTON ISD   2015-2016   2016                        50000
# ℹ 53 more rows
# ℹ abbreviated name: ¹​alice_threshold_hh_under_65

Actually, I want to fill down first then up, because I want to use the previous year when necessary instead of a future year and then for 2015 I will use 2016.

I’ll do it for all of the data.

salaries_col_fill <- salaries_col |> arrange(county, end_year) |> 
  group_by(county) |> 
  fill(alice_threshold_hh_under_65, .direction = "downup")

salaries_col_fill

# A tibble: 9,322 × 20
# Groups:   county [253]
   region county   district_number district_name.x charter_status staff_category
   <chr>  <chr>    <chr>           <chr>           <chr>          <chr>         
 1 07     ANDERSO… 001902          CAYUGA ISD      TRADITIONAL I… TEACHING STAFF
 2 07     ANDERSO… 001903          ELKHART ISD     TRADITIONAL I… TEACHING STAFF
 3 07     ANDERSO… 001904          FRANKSTON ISD   TRADITIONAL I… TEACHING STAFF
 4 07     ANDERSO… 001906          NECHES ISD      TRADITIONAL I… TEACHING STAFF
 5 07     ANDERSO… 001907          PALESTINE ISD   TRADITIONAL I… TEACHING STAFF
 6 07     ANDERSO… 001908          WESTWOOD ISD    TRADITIONAL I… TEACHING STAFF
 7 07     ANDERSO… 001909          SLOCUM ISD      TRADITIONAL I… TEACHING STAFF
 8 07     ANDERSO… 001902          CAYUGA ISD      TRADITIONAL I… TEACHING STAFF
 9 07     ANDERSO… 001903          ELKHART ISD     TRADITIONAL I… TEACHING STAFF
10 07     ANDERSO… 001904          FRANKSTON ISD   TRADITIONAL I… TEACHING STAFF
# ℹ 9,312 more rows
# ℹ 14 more variables: staff <chr>, fte_count <dbl>, total_base_pay <dbl>,
#   average_base_pay <dbl>, school_year <chr>, district_name.y <chr>,
#   tea_district_type <chr>, tea_description <chr>, nces_district_type <chr>,
#   nces_description <chr>, charter_school_y_n <chr>, end_year <chr>,
#   total_enrollment <dbl>, alice_threshold_hh_under_65 <dbl>

Now I want to see the difference between the ALICE budget and the average salary for each district.

salary_col_comparison <- salaries_col_fill |> mutate(
  difference = (average_base_pay - alice_threshold_hh_under_65) |> round_half_up()
  ) |> select(
  region, county, "district_name" = "district_name.x", total_enrollment, average_base_pay, school_year, end_year, tea_description, nces_description, alice_threshold_hh_under_65, difference
)

salary_col_comparison

# A tibble: 9,322 × 11
# Groups:   county [253]
   region county     district_name total_enrollment average_base_pay school_year
   <chr>  <chr>      <chr>                    <dbl>            <dbl> <chr>      
 1 07     ANDERSON … CAYUGA ISD                 577            44925 2014-2015  
 2 07     ANDERSON … ELKHART ISD               1217            41985 2014-2015  
 3 07     ANDERSON … FRANKSTON ISD              803            41609 2014-2015  
 4 07     ANDERSON … NECHES ISD                 370            42884 2014-2015  
 5 07     ANDERSON … PALESTINE ISD             3353            43642 2014-2015  
 6 07     ANDERSON … WESTWOOD ISD              1596            42097 2014-2015  
 7 07     ANDERSON … SLOCUM ISD                 389            44371 2014-2015  
 8 07     ANDERSON … CAYUGA ISD                 570            45359 2015-2016  
 9 07     ANDERSON … ELKHART ISD               1244            44248 2015-2016  
10 07     ANDERSON … FRANKSTON ISD              842            43165 2015-2016  
# ℹ 9,312 more rows
# ℹ 5 more variables: end_year <chr>, tea_description <chr>,
#   nces_description <chr>, alice_threshold_hh_under_65 <dbl>, difference <dbl>

Let’s look at the districts with the lowest values for difference in salary and ALICE, which means the most negative. I want to see the worst 10 for each year.

salary_col_comparison |> group_by(end_year) |> slice_min(difference, n = 10)

# A tibble: 100 × 11
# Groups:   end_year [10]
   region county     district_name total_enrollment average_base_pay school_year
   <chr>  <chr>      <chr>                    <dbl>            <dbl> <chr>      
 1 13     WILLIAMSO… COUPLAND ISD               142            38142 2014-2015  
 2 15     EDWARDS C… ROCKSPRINGS …              257            38959 2014-2015  
 3 15     EDWARDS C… NUECES CANYO…              297            39233 2014-2015  
 4 15     CONCHO CO… PAINT ROCK I…              211            40007 2014-2015  
 5 10     ELLIS COU… ITALY ISD                  577            40555 2014-2015  
 6 18     REEVES CO… BALMORHEA ISD              161            40923 2014-2015  
 7 13     WILLIAMSO… GRANGER ISD                426            41634 2014-2015  
 8 06     WALKER CO… NEW WAVERLY …              964            41915 2014-2015  
 9 10     ELLIS COU… PALMER ISD                1145            42028 2014-2015  
10 13     WILLIAMSO… THRALL ISD                 655            42164 2014-2015  
# ℹ 90 more rows
# ℹ 5 more variables: end_year <chr>, tea_description <chr>,
#   nces_description <chr>, alice_threshold_hh_under_65 <dbl>, difference <dbl>

Now let’s see the best 10 for each year (most positive).

salary_col_comparison |> group_by(end_year) |> slice_max(difference, n = 10)

# A tibble: 100 × 11
# Groups:   end_year [10]
   region county     district_name total_enrollment average_base_pay school_year
   <chr>  <chr>      <chr>                    <dbl>            <dbl> <chr>      
 1 20     KERR COUN… DIVIDE ISD            -9999993            63861 2014-2015  
 2 17     KENT COUN… JAYTON-GIRAR…              130            51405 2014-2015  
 3 11     SOMERVELL… GLEN ROSE ISD             1667            55351 2014-2015  
 4 17     BORDEN CO… BORDEN COUNT…              249            60208 2014-2015  
 5 03     MATAGORDA… PALACIOS ISD              1442            54612 2014-2015  
 6 04     CHAMBERS … BARBERS HILL…             4903            64376 2014-2015  
 7 18     TERRELL C… TERRELL COUN…              142            49273 2014-2015  
 8 18     BREWSTER … SAN VICENTE …               29            48777 2014-2015  
 9 16     OLDHAM CO… BOYS RANCH I…              281            53602 2014-2015  
10 17     KING COUN… GUTHRIE CSD                115            53465 2014-2015  
# ℹ 90 more rows
# ℹ 5 more variables: end_year <chr>, tea_description <chr>,
#   nces_description <chr>, alice_threshold_hh_under_65 <dbl>, difference <dbl>
…
Now I want to look at the average difference over time.

avg_difference_over_time <- salary_col_comparison |> group_by(tea_description, end_year) |> 
  summarize(avg_difference = mean(difference))

`summarise()` has grouped output by 'tea_description'. You can override using
the `.groups` argument.

avg_difference_over_time

# A tibble: 87 × 3
# Groups:   tea_description [9]
   tea_description  end_year avg_difference
   <chr>            <chr>             <dbl>
 1 Independent Town 2015               398.
 2 Independent Town 2016               952.
 3 Independent Town 2017              1560.
 4 Independent Town 2018             -2813.
 5 Independent Town 2019             -3092.
 6 Independent Town 2020               753.
 7 Independent Town 2021              -234.
 8 Independent Town 2022             -5187.
 9 Independent Town 2023             -1271.
10 Independent Town 2024              1047.
# ℹ 77 more rows
…
Region 13

All of the above for region 13…

region_13 <- salary_col_comparison |> filter(region == 13)

region_13

# A tibble: 483 × 11
# Groups:   county [17]
   region county     district_name total_enrollment average_base_pay school_year
   <chr>  <chr>      <chr>                    <dbl>            <dbl> <chr>      
 1 13     BASTROP C… BASTROP ISD               9928            48385 2014-2015  
 2 13     BASTROP C… ELGIN ISD                 4277            48130 2014-2015  
 3 13     BASTROP C… SMITHVILLE I…             1763            46003 2014-2015  
 4 13     BASTROP C… MCDADE ISD                 206            42880 2014-2015  
 5 13     BASTROP C… BASTROP ISD              10278            49383 2015-2016  
 6 13     BASTROP C… ELGIN ISD                 4321            47990 2015-2016  
 7 13     BASTROP C… SMITHVILLE I…             1788            46797 2015-2016  
 8 13     BASTROP C… MCDADE ISD                 221            43444 2015-2016  
 9 13     BASTROP C… BASTROP ISD              10539            49716 2016-2017  
10 13     BASTROP C… ELGIN ISD                 4317            49395 2016-2017  
# ℹ 473 more rows
# ℹ 5 more variables: end_year <chr>, tea_description <chr>,
#   nces_description <chr>, alice_threshold_hh_under_65 <dbl>, difference <dbl>

region_13 |> group_by(end_year) |> slice_min(difference, n = 10)

# A tibble: 94 × 11
# Groups:   end_year [10]
   region county     district_name total_enrollment average_base_pay school_year
   <chr>  <chr>      <chr>                    <dbl>            <dbl> <chr>      
 1 13     WILLIAMSO… COUPLAND ISD               142            38142 2014-2015  
 2 13     WILLIAMSO… GRANGER ISD                426            41634 2014-2015  
 3 13     WILLIAMSO… THRALL ISD                 655            42164 2014-2015  
 4 13     BASTROP C… MCDADE ISD                 206            42880 2014-2015  
 5 13     WILLIAMSO… FLORENCE ISD               995            43048 2014-2015  
 6 13     CALDWELL … LULING ISD                1384            44583 2014-2015  
 7 13     WILLIAMSO… TAYLOR ISD                3231            44954 2014-2015  
 8 13     CALDWELL … PRAIRIE LEA …              163            45364 2014-2015  
 9 13     WILLIAMSO… JARRELL ISD               1265            45745 2014-2015  
10 13     BASTROP C… SMITHVILLE I…             1763            46003 2014-2015  
# ℹ 84 more rows
# ℹ 5 more variables: end_year <chr>, tea_description <chr>,
#   nces_description <chr>, alice_threshold_hh_under_65 <dbl>, difference <dbl>

region_13 |> group_by(end_year) |> slice_max(difference, n = 10)

# A tibble: 94 × 11
# Groups:   end_year [10]
   region county     district_name total_enrollment average_base_pay school_year
   <chr>  <chr>      <chr>                    <dbl>            <dbl> <chr>      
 1 13     LLANO COU… LLANO ISD                 1797            47705 2014-2015  
 2 13     FAYETTE C… LA GRANGE ISD             1885            46702 2014-2015  
 3 13     BLANCO CO… BLANCO ISD                 998            50951 2014-2015  
 4 13     MILAM COU… THORNDALE ISD              604            45168 2014-2015  
 5 13     BLANCO CO… JOHNSON CITY…              683            49985 2014-2015  
 6 13     GILLESPIE… HARPER ISD                 610            49643 2014-2015  
 7 13     GILLESPIE… FREDERICKSBU…             3009            49620 2014-2015  
 8 13     FAYETTE C… SCHULENBURG …              713            44292 2014-2015  
 9 13     BURNET CO… MARBLE FALLS…             4064            48453 2014-2015  
10 13     FAYETTE C… ROUND TOP-CA…              284            43077 2014-2015  
# ℹ 84 more rows
# ℹ 5 more variables: end_year <chr>, tea_description <chr>,
#   nces_description <chr>, alice_threshold_hh_under_65 <dbl>, difference <dbl>
…
