CleaningEnrollment – tea-teachers
…
ℹ Use `spec()` to retrieve the full column specification for this data.
ℹ Specify the column types or set `show_col_types = FALSE` to quiet this message.

Warning: There was 1 warning in `mutate()`.
ℹ In argument: `enrollment = as.numeric(enrollment)`.
Caused by warning:
! NAs introduced by coercion

enrollment_all |> tail(500)

# A tibble: 500 × 8
   year   region county_name district_name district_number charter_status gender
   <chr>  <chr>  <chr>       <chr>         <chr>           <chr>          <chr> 
 1 2023-… 15     COLEMAN CO… SANTA ANNA I… 042903          TRADITIONAL I… Female
 2 2023-… 15     COLEMAN CO… SANTA ANNA I… 042903          TRADITIONAL I… Male  
 3 2023-… 04     GALVESTON … SANTA FE ISD  084909          TRADITIONAL I… Female
 4 2023-… 04     GALVESTON … SANTA FE ISD  084909          TRADITIONAL I… Male  
 5 2023-… 02     KLEBERG CO… SANTA GERTRU… 137904          TRADITIONAL I… Female
 6 2023-… 02     KLEBERG CO… SANTA GERTRU… 137904          TRADITIONAL I… Male  
 7 2023-… 01     CAMERON CO… SANTA MARIA … 031913          TRADITIONAL I… Female
 8 2023-… 01     CAMERON CO… SANTA MARIA … 031913          TRADITIONAL I… Male  
 9 2023-… 01     CAMERON CO… SANTA ROSA I… 031914          TRADITIONAL I… Female
10 2023-… 01     CAMERON CO… SANTA ROSA I… 031914          TRADITIONAL I… Male  
# ℹ 490 more rows
# ℹ 1 more variable: enrollment <dbl>

enrollment_by_district <- enrollment_all |> group_by(district_name, year) |> 
  summarize(total_enrollment = sum(enrollment, na.rm = T)) 

`summarise()` has grouped output by 'district_name'. You can override using the
`.groups` argument.

enrollment_by_district 

# A tibble: 11,953 × 3
# Groups:   district_name [1,324]
   district_name                      year      total_enrollment
   <chr>                              <chr>                <dbl>
 1 A W BROWN LEADERSHIP ACADEMY       2017-2018             2144
 2 A W BROWN LEADERSHIP ACADEMY       2018-2019             2084
 3 A W BROWN LEADERSHIP ACADEMY       2019-2020             1725
 4 A W BROWN LEADERSHIP ACADEMY       2020-2021             1383
 5 A W BROWN LEADERSHIP ACADEMY       2021-2022             1067
 6 A W BROWN LEADERSHIP ACADEMY       2022-2023              975
 7 A W BROWN LEADERSHIP ACADEMY       2023-2024              778
 8 A W BROWN-FELLOWSHIP LEADERSHIP AC 2014-2015             2152
 9 A W BROWN-FELLOWSHIP LEADERSHIP AC 2015-2016             2161
10 A W BROWN-FELLOWSHIP LEADERSHIP AC 2016-2017             2278
# ℹ 11,943 more rows
…
