Cleaning TEA Salaries – tea-teachers
…
Rows: 53839 Columns: 10
── Column specification ────────────────────────────────────────────────────────
Delimiter: ","
chr (7): Region, County, District, District Name, Charter Status, Staff_Cate...
dbl (3): FTE Count, Total Base Pay, Average Base Pay

ℹ Use `spec()` to retrieve the full column specification for this data.
ℹ Specify the column types or set `show_col_types = FALSE` to quiet this message.

tea_salaries

# A tibble: 486,794 × 11
   source     region county district district_name charter_status staff_category
   <chr>      <chr>  <chr>  <chr>    <chr>         <chr>          <chr>         
 1 Staff Sal… 07     ANDER… 001902   CAYUGA ISD    TRADITIONAL I… TEACHING STAFF
 2 Staff Sal… 07     ANDER… 001902   CAYUGA ISD    TRADITIONAL I… TEACHING STAFF
 3 Staff Sal… 07     ANDER… 001902   CAYUGA ISD    TRADITIONAL I… TEACHING STAFF
 4 Staff Sal… 07     ANDER… 001902   CAYUGA ISD    TRADITIONAL I… TEACHING STAFF
 5 Staff Sal… 07     ANDER… 001902   CAYUGA ISD    TRADITIONAL I… TEACHING STAFF
 6 Staff Sal… 07     ANDER… 001902   CAYUGA ISD    TRADITIONAL I… TEACHING STAFF
 7 Staff Sal… 07     ANDER… 001902   CAYUGA ISD    TRADITIONAL I… TEACHING STAFF
 8 Staff Sal… 07     ANDER… 001902   CAYUGA ISD    TRADITIONAL I… TEACHING STAFF
 9 Staff Sal… 07     ANDER… 001902   CAYUGA ISD    TRADITIONAL I… TEACHING STAFF
10 Staff Sal… 07     ANDER… 001902   CAYUGA ISD    TRADITIONAL I… TEACHING STAFF
# ℹ 486,784 more rows
# ℹ 4 more variables: staff <chr>, fte_count <dbl>, total_base_pay <dbl>,
#   average_base_pay <dbl>

I know that the end of each file has weird extra lines with extra text. Let’s remove all of those lines that don’t have an actual region. Then we check that the files combined correctly by looking at the end of the datatset

tea_salaries <- tea_salaries |> filter(str_length(region) <= 2)

tea_salaries |> tail(50)

# A tibble: 50 × 11
   source     region county district district_name charter_status staff_category
   <chr>      <chr>  <chr>  <chr>    <chr>         <chr>          <chr>         
 1 Staff Sal… 07     ANGEL… 003906   ZAVALLA ISD   TRADITIONAL I… SUPPORT STAFF 
 2 Staff Sal… 07     ANGEL… 003906   ZAVALLA ISD   TRADITIONAL I… SUPPORT STAFF 
 3 Staff Sal… 07     ANGEL… 003906   ZAVALLA ISD   TRADITIONAL I… SUPPORT STAFF 
 4 Staff Sal… 07     ANGEL… 003906   ZAVALLA ISD   TRADITIONAL I… SUPPORT STAFF 
 5 Staff Sal… 07     ANGEL… 003906   ZAVALLA ISD   TRADITIONAL I… ADMINISTRATIV…
 6 Staff Sal… 07     ANGEL… 003906   ZAVALLA ISD   TRADITIONAL I… ADMINISTRATIV…
 7 Staff Sal… 07     ANGEL… 003906   ZAVALLA ISD   TRADITIONAL I… ADMINISTRATIV…
 8 Staff Sal… 07     ANGEL… 003906   ZAVALLA ISD   TRADITIONAL I… ADMINISTRATIV…
 9 Staff Sal… 07     ANGEL… 003906   ZAVALLA ISD   TRADITIONAL I… ADMINISTRATIV…
10 Staff Sal… 07     ANGEL… 003906   ZAVALLA ISD   TRADITIONAL I… <NA>          
# ℹ 40 more rows
# ℹ 4 more variables: staff <chr>, fte_count <dbl>, total_base_pay <dbl>,
#   average_base_pay <dbl>

Another check that the files combined correctly.

tea_salaries |> group_by(district) |> 
  summarize(total = n())

# A tibble: 1,256 × 2
   district total
   <chr>    <int>
 1 001902     380
 2 001903     332
 3 001904     323
 4 001906     282
 5 001907     452
 6 001908     358
 7 001909     291
 8 002901     520
 9 003801     385
10 003902     424
# ℹ 1,246 more rows
…
tea_salaries |> filter(staff_category == "TRADITIONAL ISD/CSD")

# A tibble: 1 × 11
  source      region county district district_name charter_status staff_category
  <chr>       <chr>  <chr>  <chr>    <chr>         <chr>          <chr>         
1 Staff Sala… 05     NEWTO… 176901   "TEXAS EDUCA… <NA>           TRADITIONAL I…
# ℹ 4 more variables: staff <chr>, fte_count <dbl>, total_base_pay <dbl>,
#   average_base_pay <dbl>

It’s only one row…and it looks like it might be missing data. Let’s look at all the rows for this district.

tea_salaries |> filter(district == "176901")

# A tibble: 307 × 11
   source     region county district district_name charter_status staff_category
   <chr>      <chr>  <chr>  <chr>    <chr>         <chr>          <chr>         
 1 Staff Sal… 05     NEWTO… 176901   BURKEVILLE I… TRADITIONAL I… TEACHING STAFF
 2 Staff Sal… 05     NEWTO… 176901   BURKEVILLE I… TRADITIONAL I… TEACHING STAFF
 3 Staff Sal… 05     NEWTO… 176901   BURKEVILLE I… TRADITIONAL I… TEACHING STAFF
 4 Staff Sal… 05     NEWTO… 176901   BURKEVILLE I… TRADITIONAL I… TEACHING STAFF
 5 Staff Sal… 05     NEWTO… 176901   BURKEVILLE I… TRADITIONAL I… TEACHING STAFF
 6 Staff Sal… 05     NEWTO… 176901   BURKEVILLE I… TRADITIONAL I… TEACHING STAFF
 7 Staff Sal… 05     NEWTO… 176901   BURKEVILLE I… TRADITIONAL I… TEACHING STAFF
 8 Staff Sal… 05     NEWTO… 176901   BURKEVILLE I… TRADITIONAL I… TEACHING STAFF
 9 Staff Sal… 05     NEWTO… 176901   BURKEVILLE I… TRADITIONAL I… TEACHING STAFF
10 Staff Sal… 05     NEWTO… 176901   BURKEVILLE I… TRADITIONAL I… TEACHING STAFF
# ℹ 297 more rows
# ℹ 4 more variables: staff <chr>, fte_count <dbl>, total_base_pay <dbl>,
#   average_base_pay <dbl>
…
Now we want to pull the school year from the file name (source column). Then we will get rid of that source column cause we don’t need it anymore and then I need ot factor the years so R understands that the strings have an order.

teaching_staff_salaries <- tea_salaries |> filter(staff_category == "TEACHING STAFF") |> 
  mutate(school_year = substr(source, start = (nchar(source) - 13 + 1), stop = nchar(source)-4))

teaching_staff_salaries <- teaching_staff_salaries |> select(-source) |> 
  mutate(
    school_year = factor(school_year, 
                         levels = c("2014-2015", "2015-2016", "2016-2017", "2017-2018", "2018-2019", "2019-2020", "2020-2021", "2021-2022", "2022-2023", "2023-2024")))

colnames(teaching_staff_salaries)[colnames(teaching_staff_salaries) == "district"] <- "district_number"

teaching_staff_salaries

# A tibble: 160,221 × 11
   region county     district_number district_name charter_status staff_category
   <chr>  <chr>      <chr>           <chr>         <chr>          <chr>         
 1 07     ANDERSON … 001902          CAYUGA ISD    TRADITIONAL I… TEACHING STAFF
 2 07     ANDERSON … 001902          CAYUGA ISD    TRADITIONAL I… TEACHING STAFF
 3 07     ANDERSON … 001902          CAYUGA ISD    TRADITIONAL I… TEACHING STAFF
 4 07     ANDERSON … 001902          CAYUGA ISD    TRADITIONAL I… TEACHING STAFF
 5 07     ANDERSON … 001902          CAYUGA ISD    TRADITIONAL I… TEACHING STAFF
 6 07     ANDERSON … 001902          CAYUGA ISD    TRADITIONAL I… TEACHING STAFF
 7 07     ANDERSON … 001902          CAYUGA ISD    TRADITIONAL I… TEACHING STAFF
 8 07     ANDERSON … 001902          CAYUGA ISD    TRADITIONAL I… TEACHING STAFF
 9 07     ANDERSON … 001902          CAYUGA ISD    TRADITIONAL I… TEACHING STAFF
10 07     ANDERSON … 001902          CAYUGA ISD    TRADITIONAL I… TEACHING STAFF
# ℹ 160,211 more rows
# ℹ 5 more variables: staff <chr>, fte_count <dbl>, total_base_pay <dbl>,
#   average_base_pay <dbl>, school_year <fct>

District Types and Join

Let’s read in the district types spreadsheet. We also want to clean the names and then change the first column to be district_name so it doesn’t conflict when we join it later.

district_types <- read_xlsx("data-raw/district-type2223.xlsx", sheet = "2223_Data") |> clean_names()

colnames(district_types)[colnames(district_types) == 'district'] <- 'district_name'

district_types

# A tibble: 1,217 × 7
   district_name               district_number tea_district_type tea_description
   <chr>                       <chr>           <chr>             <chr>          
 1 A W BROWN LEADERSHIP ACADE… 057816          I                 Charter Schools
 2 A+ ACADEMY                  057829          I                 Charter Schools
 3 A+ UNLIMITED POTENTIAL      101871          I                 Charter Schools
 4 ABBOTT ISD                  109901          H                 Rural          
 5 ABERNATHY ISD               095901          H                 Rural          
 6 ABILENE ISD                 221901          C                 Other Central …
 7 ACADEMY FOR ACADEMIC EXCEL… 057814          I                 Charter Schools
 8 ACADEMY ISD                 014901          G                 Non-metropolit…
 9 ACADEMY OF ACCELERATED LEA… 101810          I                 Charter Schools
10 ACADEMY OF DALLAS           057810          I                 Charter Schools
# ℹ 1,207 more rows
# ℹ 3 more variables: nces_district_type <chr>, nces_description <chr>,
#   charter_school_y_n <chr>

Now I am going to join the district type data frame with the district salary data.

salaries_district_types <- teaching_staff_salaries |>  left_join(district_types, by = "district_number") 

salaries_district_types 

# A tibble: 160,221 × 17
   region county   district_number district_name.x charter_status staff_category
   <chr>  <chr>    <chr>           <chr>           <chr>          <chr>         
 1 07     ANDERSO… 001902          CAYUGA ISD      TRADITIONAL I… TEACHING STAFF
 2 07     ANDERSO… 001902          CAYUGA ISD      TRADITIONAL I… TEACHING STAFF
 3 07     ANDERSO… 001902          CAYUGA ISD      TRADITIONAL I… TEACHING STAFF
 4 07     ANDERSO… 001902          CAYUGA ISD      TRADITIONAL I… TEACHING STAFF
 5 07     ANDERSO… 001902          CAYUGA ISD      TRADITIONAL I… TEACHING STAFF
 6 07     ANDERSO… 001902          CAYUGA ISD      TRADITIONAL I… TEACHING STAFF
 7 07     ANDERSO… 001902          CAYUGA ISD      TRADITIONAL I… TEACHING STAFF
 8 07     ANDERSO… 001902          CAYUGA ISD      TRADITIONAL I… TEACHING STAFF
 9 07     ANDERSO… 001902          CAYUGA ISD      TRADITIONAL I… TEACHING STAFF
10 07     ANDERSO… 001902          CAYUGA ISD      TRADITIONAL I… TEACHING STAFF
# ℹ 160,211 more rows
# ℹ 11 more variables: staff <chr>, fte_count <dbl>, total_base_pay <dbl>,
#   average_base_pay <dbl>, school_year <fct>, district_name.y <chr>,
#   tea_district_type <chr>, tea_description <chr>, nces_district_type <chr>,
#   nces_description <chr>, charter_school_y_n <chr>

salaries_district_types |> count(district_number, district_name.x, district_name.y) |> count(district_number, sort = T)

# A tibble: 1,255 × 2
   district_number     n
   <chr>           <int>
 1 227824              4
 2 015830              3
 3 004901              2
 4 015805              2
 5 015806              2
 6 015808              2
 7 015815              2
 8 015822              2
 9 015825              2
10 015828              2
# ℹ 1,245 more rows

salaries_district_types |> filter(district_number == "227824") 

# A tibble: 126 × 17
   region county   district_number district_name.x charter_status staff_category
   <chr>  <chr>    <chr>           <chr>           <chr>          <chr>         
 1 13     TRAVIS … 227824          THE EAST AUSTI… OPEN ENROLLME… TEACHING STAFF
 2 13     TRAVIS … 227824          THE EAST AUSTI… OPEN ENROLLME… TEACHING STAFF
 3 13     TRAVIS … 227824          THE EAST AUSTI… OPEN ENROLLME… TEACHING STAFF
 4 13     TRAVIS … 227824          THE EAST AUSTI… OPEN ENROLLME… TEACHING STAFF
 5 13     TRAVIS … 227824          THE EAST AUSTI… OPEN ENROLLME… TEACHING STAFF
 6 13     TRAVIS … 227824          THE EAST AUSTI… OPEN ENROLLME… TEACHING STAFF
 7 13     TRAVIS … 227824          THE EAST AUSTI… OPEN ENROLLME… TEACHING STAFF
 8 13     TRAVIS … 227824          THE EAST AUSTI… OPEN ENROLLME… TEACHING STAFF
 9 13     TRAVIS … 227824          THE EAST AUSTI… OPEN ENROLLME… TEACHING STAFF
10 13     TRAVIS … 227824          THE EAST AUSTI… OPEN ENROLLME… TEACHING STAFF
# ℹ 116 more rows
# ℹ 11 more variables: staff <chr>, fte_count <dbl>, total_base_pay <dbl>,
#   average_base_pay <dbl>, school_year <fct>, district_name.y <chr>,
#   tea_district_type <chr>, tea_description <chr>, nces_district_type <chr>,
#   nces_description <chr>, charter_school_y_n <chr>

salaries_district_types <- salaries_district_types |> mutate(
  end_year = substr(school_year, start = 6, stop = 9)
)

salaries_district_types

# A tibble: 160,221 × 18
   region county   district_number district_name.x charter_status staff_category
   <chr>  <chr>    <chr>           <chr>           <chr>          <chr>         
 1 07     ANDERSO… 001902          CAYUGA ISD      TRADITIONAL I… TEACHING STAFF
 2 07     ANDERSO… 001902          CAYUGA ISD      TRADITIONAL I… TEACHING STAFF
 3 07     ANDERSO… 001902          CAYUGA ISD      TRADITIONAL I… TEACHING STAFF
 4 07     ANDERSO… 001902          CAYUGA ISD      TRADITIONAL I… TEACHING STAFF
 5 07     ANDERSO… 001902          CAYUGA ISD      TRADITIONAL I… TEACHING STAFF
 6 07     ANDERSO… 001902          CAYUGA ISD      TRADITIONAL I… TEACHING STAFF
 7 07     ANDERSO… 001902          CAYUGA ISD      TRADITIONAL I… TEACHING STAFF
 8 07     ANDERSO… 001902          CAYUGA ISD      TRADITIONAL I… TEACHING STAFF
 9 07     ANDERSO… 001902          CAYUGA ISD      TRADITIONAL I… TEACHING STAFF
10 07     ANDERSO… 001902          CAYUGA ISD      TRADITIONAL I… TEACHING STAFF
# ℹ 160,211 more rows
# ℹ 12 more variables: staff <chr>, fte_count <dbl>, total_base_pay <dbl>,
#   average_base_pay <dbl>, school_year <fct>, district_name.y <chr>,
#   tea_district_type <chr>, tea_description <chr>, nces_district_type <chr>,
#   nces_description <chr>, charter_school_y_n <chr>, end_year <chr>
…
