CleaningCPI – tea-teachers
…
Warning: Expecting numeric in I118 / R118C9: got '–'

Warning: Expecting numeric in J118 / R118C10: got '–'

Warning: Expecting numeric in K118 / R118C11: got '–'

Warning: Expecting numeric in L118 / R118C12: got '–'

Warning: Expecting numeric in M118 / R118C13: got '–'

Warning: Expecting numeric in N118 / R118C14: got '–'

historical_cpi

# A tibble: 114 × 14
   `Indent Level`  Year  Jan.  Feb.  Mar.  Apr.   May  Jun.  Jul.  Aug.  Sep.
            <dbl> <dbl> <dbl> <dbl> <dbl> <dbl> <dbl> <dbl> <dbl> <dbl> <dbl>
 1             NA    NA  NA    NA    NA    NA    NA    NA    NA    NA    NA  
 2              0  1913   9.8   9.8   9.8   9.8   9.7   9.8   9.9   9.9  10  
 3              0  1914  10     9.9   9.9   9.8   9.9   9.9  10    10.2  10.2
 4              0  1915  10.1  10     9.9  10    10.1  10.1  10.1  10.1  10.1
 5              0  1916  10.4  10.4  10.5  10.6  10.7  10.8  10.8  10.9  11.1
 6              0  1917  11.7  12    12    12.6  12.8  13    12.8  13    13.3
 7              0  1918  14    14.1  14    14.2  14.5  14.7  15.1  15.4  15.7
 8              0  1919  16.5  16.2  16.4  16.7  16.9  16.9  17.4  17.7  17.8
 9              0  1920  19.3  19.5  19.7  20.3  20.6  20.9  20.8  20.3  20  
10              0  1921  19    18.4  18.3  18.1  17.7  17.6  17.7  17.7  17.5
# ℹ 104 more rows
# ℹ 3 more variables: Oct. <dbl>, Nov. <dbl>, Dec. <dbl>

historical_cpi_clean <- historical_cpi |> 
  clean_names() |> 
  select(-indent_level) |> 
  drop_na(year)

historical_cpi_clean

# A tibble: 113 × 13
    year   jan   feb   mar   apr   may   jun   jul   aug   sep   oct   nov   dec
   <dbl> <dbl> <dbl> <dbl> <dbl> <dbl> <dbl> <dbl> <dbl> <dbl> <dbl> <dbl> <dbl>
 1  1913   9.8   9.8   9.8   9.8   9.7   9.8   9.9   9.9  10    10    10.1  10  
 2  1914  10     9.9   9.9   9.8   9.9   9.9  10    10.2  10.2  10.1  10.2  10.1
 3  1915  10.1  10     9.9  10    10.1  10.1  10.1  10.1  10.1  10.2  10.3  10.3
 4  1916  10.4  10.4  10.5  10.6  10.7  10.8  10.8  10.9  11.1  11.3  11.5  11.6
 5  1917  11.7  12    12    12.6  12.8  13    12.8  13    13.3  13.5  13.5  13.7
 6  1918  14    14.1  14    14.2  14.5  14.7  15.1  15.4  15.7  16    16.3  16.5
 7  1919  16.5  16.2  16.4  16.7  16.9  16.9  17.4  17.7  17.8  18.1  18.5  18.9
 8  1920  19.3  19.5  19.7  20.3  20.6  20.9  20.8  20.3  20    19.9  19.8  19.4
 9  1921  19    18.4  18.3  18.1  17.7  17.6  17.7  17.7  17.5  17.5  17.4  17.3
10  1922  16.9  16.9  16.7  16.7  16.7  16.7  16.8  16.6  16.6  16.7  16.8  16.9
# ℹ 103 more rows
…
recent_cpi_pivoted <- recent_cpi |> pivot_longer(!year, names_to = "month", values_to = "cpi")

recent_cpi_pivoted

# A tibble: 144 × 3
    year month   cpi
   <dbl> <chr> <dbl>
 1  2014 jan    234.
 2  2014 feb    235.
 3  2014 mar    236.
 4  2014 apr    237.
 5  2014 may    238.
 6  2014 jun    238.
 7  2014 jul    238.
 8  2014 aug    238.
 9  2014 sep    238.
10  2014 oct    237.
# ℹ 134 more rows

cpi_cleaned <- recent_cpi_pivoted |> mutate(
  year_month = my(paste(month, year))
) |> select(year_month,
            cpi,
            -year,
            -month)

cpi_cleaned

# A tibble: 144 × 2
   year_month   cpi
   <date>     <dbl>
 1 2014-01-01  234.
 2 2014-02-01  235.
 3 2014-03-01  236.
 4 2014-04-01  237.
 5 2014-05-01  238.
 6 2014-06-01  238.
 7 2014-07-01  238.
 8 2014-08-01  238.
 9 2014-09-01  238.
10 2014-10-01  237.
# ℹ 134 more rows
…
alice <- read_xlsx("data-raw/2024 ALICE - Texas Data Sheet.xlsx",
                   sheet = "County 2010-2022") |> clean_names()

alice 

# A tibble: 2,032 × 13
   state  year geo_id2 geo_display_label      county   state_abbr households
   <chr> <dbl> <chr>   <chr>                  <chr>    <chr>           <dbl>
 1 Texas  2010 48001   Anderson County, Texas Anderson TX              15936
 2 Texas  2012 48001   Anderson County, Texas Anderson TX              16738
 3 Texas  2014 48001   Anderson County, Texas Anderson TX              16610
 4 Texas  2016 48001   Anderson County, Texas Anderson TX              16572
 5 Texas  2018 48001   Anderson County, Texas Anderson TX              16459
 6 Texas  2019 48001   Anderson County, Texas Anderson TX              16677
 7 Texas  2021 48001   Anderson County, Texas Anderson TX              16477
 8 Texas  2022 48001   Anderson County, Texas Anderson TX              16899
 9 Texas  2010 48003   Andrews County, Texas  Andrews  TX               5205
10 Texas  2012 48003   Andrews County, Texas  Andrews  TX               5183
# ℹ 2,022 more rows
# ℹ 6 more variables: poverty_households <dbl>, alice_households <dbl>,
#   above_alice_households <dbl>, alice_threshold_hh_under_65 <dbl>,
#   alice_threshold_hh_65_years_and_over <dbl>,
#   source_american_community_survey <chr>

household_budget <- alice |> select(
  -geo_id2,
  -geo_display_label,
  -state_abbr,
  -source_american_community_survey
)

household_budget

# A tibble: 2,032 × 9
   state  year county   households poverty_households alice_households
   <chr> <dbl> <chr>         <dbl>              <dbl>            <dbl>
 1 Texas  2010 Anderson      15936               2949             5451
 2 Texas  2012 Anderson      16738               3099             6006
 3 Texas  2014 Anderson      16610               2789             6922
 4 Texas  2016 Anderson      16572               2516             6533
 5 Texas  2018 Anderson      16459               2450             7771
 6 Texas  2019 Anderson      16677               2434             7846
 7 Texas  2021 Anderson      16477               2409             6673
 8 Texas  2022 Anderson      16899               2549             6491
 9 Texas  2010 Andrews        5205                733             1020
10 Texas  2012 Andrews        5183                696             1043
# ℹ 2,022 more rows
# ℹ 3 more variables: above_alice_households <dbl>,
#   alice_threshold_hh_under_65 <dbl>,
#   alice_threshold_hh_65_years_and_over <dbl>

household_budget_simple <- household_budget |> 
  mutate(county = paste(toupper(county), "COUNTY"),
         end_year = as.character(year)) |> 
  select(end_year, county, alice_threshold_hh_under_65)

household_budget_simple

# A tibble: 2,032 × 3
   end_year county          alice_threshold_hh_under_65
   <chr>    <chr>                                 <dbl>
 1 2010     ANDERSON COUNTY                      50000 
 2 2012     ANDERSON COUNTY                      50000 
 3 2014     ANDERSON COUNTY                      60000 
 4 2016     ANDERSON COUNTY                      50000 
 5 2018     ANDERSON COUNTY                      60000 
 6 2019     ANDERSON COUNTY                      60000 
 7 2021     ANDERSON COUNTY                      60000 
 8 2022     ANDERSON COUNTY                      66821.
 9 2010     ANDREWS COUNTY                       35000 
10 2012     ANDREWS COUNTY                       40000 
# ℹ 2,022 more rows
…
